40400002.jpg
40400006.jpg
40400008.jpg
40400010.jpg
40400013.jpg
40400014.jpg
40400015.jpg
40400016.jpg
40400022.jpg
40400023.jpg
40400024.jpg
40400025.jpg
40400028.jpg
40400030.jpg
40400033.jpg
40400036.jpg
40400039.jpg
40400040.jpg
40400042.jpg
40400044.jpg
40400048.jpg
40400053.jpg
40400054.jpg
40400055.jpg
40400056.jpg
40400061.jpg
40400062.jpg
40400065.jpg
40400071.jpg
40400072.jpg
40400073.jpg
40400074.jpg
40400079.jpg
40400080.jpg
40400081.jpg
40400083.jpg
40400087.jpg
40400092.jpg
40400093.jpg
40400097.jpg
40400101.jpg
40400105.jpg
40400106.jpg
40400108.jpg
40400113.jpg
40400119.jpg
40400120.jpg
40400121.jpg
40400131.jpg
40400132.jpg
40400134.jpg
40400135.jpg
40400136.jpg
40400143.jpg
40400149.jpg
40400153.jpg
40400154.jpg
40400159.jpg
40400165.jpg
40400166.jpg
40400180.jpg
40400186.jpg
40400191.jpg
40400192.jpg
40400195.jpg
40400196.jpg
40400202.jpg
40400208.jpg
40400223.jpg
40400225.jpg
40400233.jpg
40400240.jpg
40400244.jpg
40400246.jpg
40400247.jpg
40400253.jpg
40400257.jpg
40400263.jpg
40400268.jpg
40400286.jpg
40400291.jpg
40400299.jpg
40400306.jpg
40400316.jpg
40400331.jpg
40400336.jpg
40400339.jpg
40400340.jpg
40400347.jpg
40400350.jpg
40400353.jpg
40400357.jpg
40400364.jpg
40400365.jpg
40400366.jpg
40400377.jpg
40400381.jpg
40400385.jpg
40400391.jpg
40400393.jpg
40400394.jpg
40400395.jpg
40400397.jpg
40400405.jpg
40400406.jpg
40400409.jpg
40400414.jpg
40400434.jpg
40400435.jpg
40400439.jpg
40400440.jpg
40400447.jpg
40400450.jpg
40400458.jpg
40400463.jpg
40400464.jpg
40400472.jpg
40400473.jpg
40400488.jpg
40400514.jpg
40400520.jpg
40400522.jpg
40400524.jpg
40400525.jpg
40400526.jpg
40400535.jpg
40400537.jpg
40400541.jpg
40400570.jpg
40400571.jpg
40400573.jpg
40400578.jpg
40400582.jpg
40400584.jpg
40400589.jpg
40400595.jpg
40400598.jpg
40400601.jpg
40400608.jpg
40400618.jpg
40400619.jpg
40400625.jpg
40400651.jpg
40400670.jpg
40400687.jpg
40400709.jpg
40400717.jpg
40400718.jpg
40400728.jpg
40400738.jpg
40400765.jpg
40400766.jpg
40400767.jpg
40400768.jpg
40400773.jpg
40400788.jpg
40400791.jpg
40400797.jpg
40400808.jpg
40400810.jpg
40400815.jpg
40400821.jpg
40400825.jpg
40400833.jpg
40400837.jpg
40400843.jpg
40400872.jpg
40400906.jpg
40400907.jpg
40400914.jpg
40400924.jpg
40400929.jpg
40400931.jpg
40400944.jpg
40400959.jpg
40400962.jpg
40400967.jpg
40400971.jpg
40400975.jpg
40400983.jpg
40400993.jpg
40401007.jpg
40401009.jpg
40401011.jpg
40401022.jpg
40401026.jpg
40401029.jpg
40401041.jpg
40401053.jpg
40401070.jpg
40401074.jpg
40401077.jpg
40401094.jpg
40401099.jpg
40401100.jpg
40401110.jpg
40401127.jpg
40401134.jpg
40401139.jpg
40401147.jpg
40401155.jpg
40401173.jpg
40401180.jpg
40401181.jpg
40401188.jpg
40401193.jpg
40401220.jpg
40401222.jpg
40401240.jpg
40401242.jpg
40401253.jpg
40401262.jpg
40401265.jpg
40401272.jpg
40401274.jpg
40401278.jpg
40401290.jpg
40401296.jpg
40401297.jpg
40401300.jpg
40401330.jpg
40401338.jpg
40401358.jpg
40401359.jpg
40401360.jpg
40401361.jpg
40401366.jpg
40401370.jpg
40401371.jpg
40401383.jpg
40401396.jpg
40401397.jpg
40401399.jpg
40401435.jpg
40401457.jpg
40401463.jpg
40401465.jpg
40401472.jpg
40401479.jpg
40401481.jpg
40401486.jpg
40401487.jpg
40401493.jpg
40401499.jpg
40401501.jpg
40401502.jpg
40401517.jpg
40401545.jpg
40401546.jpg
40401561.jpg
40401568.jpg
40401576.jpg
40401578.jpg
40401579.jpg
40401583.jpg
40401590.jpg
40401595.jpg
40401597.jpg
40401598.jpg
40401608.jpg
40401609.jpg
40401620.jpg
40401621.jpg
40401654.jpg
40401674.jpg
40401677.jpg
40401678.jpg
40401687.jpg
40401691.jpg
40401706.jpg
40401729.jpg
40401738.jpg
40401751.jpg
40401752.jpg
40401754.jpg
40401755.jpg
40401765.jpg
40401778.jpg
40401784.jpg
40401787.jpg
40401797.jpg
40401810.jpg
40401838.jpg
40401844.jpg
40401847.jpg
40401865.jpg
40401872.jpg
40401877.jpg
40401880.jpg
40401899.jpg
40401908.jpg
40401913.jpg
40401921.jpg
40401929.jpg
40401933.jpg
40401939.jpg
40401951.jpg
40401956.jpg
40401984.jpg
40401987.jpg
40401995.jpg
40401999.jpg
40402022.jpg
40402039.jpg
40402057.jpg
40402080.jpg
40402081.jpg
40402090.jpg
40402108.jpg
40402121.jpg
40402129.jpg
40402138.jpg
40402144.jpg
40402150.jpg
40402153.jpg
40402156.jpg
40402165.jpg
40402168.jpg
40402174.jpg
40402175.jpg
40402179.jpg
40402185.jpg
40402186.jpg
40402195.jpg
40402215.jpg
40402217.jpg
40402224.jpg
40402227.jpg
40402238.jpg
40402248.jpg
40402265.jpg
40402266.jpg
40402269.jpg
40402273.jpg
40402277.jpg
40402278.jpg
40402281.jpg
40402329.jpg
40402331.jpg
40402346.jpg
40402367.jpg
40402380.jpg
40402382.jpg
40402388.jpg
40402412.jpg
40402419.jpg
40402429.jpg
40402435.jpg
40402438.jpg
40402451.jpg
40402456.jpg
40402461.jpg
40402462.jpg
40402477.jpg
40402478.jpg
40402481.jpg
40402489.jpg
40402492.jpg
40402496.jpg
40402498.jpg
40402519.jpg
40402525.jpg
40402546.jpg
40402552.jpg
40402558.jpg
40402566.jpg
40402581.jpg
40402582.jpg
40402625.jpg
40402630.jpg
40402649.jpg
40402657.jpg
40402660.jpg
40402670.jpg
40402676.jpg
40402677.jpg
40402704.jpg
40402706.jpg
40402709.jpg
40402714.jpg
40402716.jpg
40402721.jpg
40402731.jpg
40402740.jpg
40402743.jpg
40402753.jpg
40402759.jpg
40402763.jpg
40402764.jpg
40402772.jpg
40402776.jpg
40402781.jpg
40402783.jpg
40402785.jpg
40402788.jpg
40402795.jpg
40402812.jpg
40402833.jpg
40402837.jpg
40402845.jpg
40402853.jpg
40402855.jpg
40402856.jpg
40402859.jpg
40402864.jpg
40402865.jpg
40402866.jpg
40402869.jpg
40402893.jpg
40402906.jpg
40402909.jpg
40402926.jpg
40402930.jpg
40402966.jpg
40402981.jpg
40403008.jpg
40403017.jpg
40403033.jpg
40403038.jpg
40403041.jpg
40403054.jpg
40403057.jpg
40403061.jpg
40403063.jpg
40403069.jpg
40403072.jpg
40403082.jpg
40403093.jpg
40403121.jpg
40403133.jpg
40403149.jpg
40403164.jpg
40403190.jpg
40403200.jpg
40403204.jpg
40403207.jpg
40403208.jpg
40403209.jpg
40403212.jpg
40403213.jpg
40403214.jpg
40403218.jpg
40403228.jpg
40403239.jpg
40403241.jpg
40403246.jpg
40403248.jpg
40403250.jpg
40403252.jpg
40403253.jpg
40403257.jpg
40403262.jpg
40403266.jpg
40403300.jpg
40403302.jpg
40403335.jpg
40403342.jpg
40403353.jpg
40403357.jpg
40403358.jpg
40403359.jpg
40403360.jpg
40403363.jpg
40403364.jpg
40403370.jpg
40403385.jpg
40403386.jpg
40403392.jpg
40403394.jpg
40403395.jpg
40403410.jpg
40403411.jpg
40403413.jpg
40403415.jpg
40403424.jpg
40403433.jpg
40403440.jpg
40403448.jpg
40403456.jpg
40403495.jpg
40403502.jpg
40403505.jpg
40403540.jpg
40403551.jpg
40403555.jpg
40403561.jpg
40403569.jpg
40403592.jpg
40403597.jpg
40403598.jpg
40403639.jpg
40403640.jpg
40403643.jpg
40403667.jpg
40403672.jpg
40403686.jpg
40403696.jpg
40403697.jpg
40403710.jpg
40403715.jpg
40403716.jpg
40403718.jpg
40403720.jpg
40403733.jpg
40403736.jpg
40403738.jpg
40403746.jpg
40403755.jpg
40403780.jpg
40403790.jpg
40403792.jpg
40403803.jpg
40403804.jpg
40403812.jpg
40403813.jpg
40403815.jpg
40403817.jpg
40403824.jpg
40403835.jpg
40403838.jpg
40403844.jpg
40403857.jpg
40403861.jpg
40403865.jpg
40403871.jpg
40403872.jpg
40403873.jpg
40403879.jpg
40403893.jpg
40403894.jpg
40403901.jpg
40403902.jpg
40403906.jpg
40403915.jpg
40403917.jpg
40403922.jpg
40403928.jpg
40403930.jpg
40403933.jpg
40403934.jpg
40403943.jpg
40403945.jpg
40403946.jpg
40403963.jpg
40403972.jpg
40403977.jpg
40403983.jpg
40403998.jpg
40404006.jpg
40404009.jpg
40404033.jpg
40404038.jpg
40404039.jpg
40404049.jpg
40404052.jpg
40404056.jpg
40404059.jpg
40404064.jpg
40404067.jpg
40404069.jpg
40404071.jpg
40404085.jpg
40404087.jpg
40404109.jpg
40404111.jpg
40404113.jpg
40404118.jpg
40404121.jpg
40404125.jpg
40404126.jpg
40404147.jpg
40404157.jpg
40404160.jpg
40404164.jpg
40404172.jpg
40404173.jpg
40404180.jpg
40404195.jpg
40404201.jpg
40404205.jpg
40404207.jpg
40404209.jpg
40404213.jpg
40404255.jpg
40404256.jpg
40404281.jpg
40404288.jpg
40404289.jpg
40404298.jpg
40404299.jpg
40404304.jpg
40404310.jpg
40404323.jpg
40404329.jpg
40404335.jpg
40404339.jpg
40404341.jpg
40404343.jpg
40404345.jpg
40404346.jpg
40404347.jpg
40404366.jpg
40404383.jpg
40404385.jpg
40404394.jpg
40404413.jpg
40404445.jpg
40404449.jpg
40404463.jpg
40404466.jpg
40404470.jpg
40404481.jpg
40404483.jpg
40404484.jpg
40404487.jpg
40404500.jpg
40404510.jpg
40404511.jpg
40404558.jpg
40404568.jpg
40404571.jpg
40404580.jpg
40404582.jpg
40404623.jpg
40404628.jpg
40404635.jpg
40404637.jpg
40404645.jpg
40404652.jpg
40404656.jpg
40404662.jpg
40404665.jpg
40404673.jpg
40404677.jpg
40404678.jpg
40404682.jpg
40404685.jpg
40404686.jpg
40404688.jpg
40404697.jpg
40404721.jpg
40404724.jpg
40404736.jpg
40404738.jpg
40404746.jpg
40404748.jpg
40404759.jpg
40404764.jpg
40404775.jpg
40404781.jpg
40404790.jpg
40404798.jpg
40404809.jpg
40404810.jpg
40404819.jpg
40404827.jpg
40404831.jpg
40404866.jpg
40404877.jpg
40404911.jpg
40404919.jpg
40404931.jpg
40404952.jpg
40404968.jpg
40404973.jpg
40404982.jpg
40404983.jpg
40404984.jpg
40404985.jpg
40404992.jpg
40404996.jpg
40404999.jpg
40405010.jpg
40405014.jpg
40405015.jpg
40405032.jpg
40405037.jpg
40405040.jpg
40405066.jpg
40405071.jpg
40405073.jpg
40405079.jpg
40405081.jpg
40405095.jpg
40405097.jpg
40405109.jpg
40405111.jpg
40405121.jpg
40405142.jpg
40405150.jpg
40405152.jpg
40405154.jpg
40405165.jpg
40405177.jpg
40405181.jpg
40405182.jpg
40405194.jpg
40405195.jpg
40405204.jpg
40405218.jpg
40405239.jpg
40405255.jpg
40405258.jpg
40405264.jpg
40405273.jpg
40405274.jpg
40405275.jpg
40405292.jpg
40405301.jpg
40405312.jpg
40405324.jpg
40405361.jpg
40405363.jpg
40405377.jpg
40405388.jpg
40405400.jpg
40405403.jpg
40405406.jpg
40405415.jpg
40405419.jpg
40405420.jpg
40405434.jpg
40405436.jpg
40405437.jpg
40405438.jpg
40405444.jpg
40405445.jpg
40405449.jpg
40405451.jpg
40405458.jpg
40405461.jpg
40405468.jpg
40405471.jpg
40405475.jpg
40405478.jpg
40405503.jpg
40405510.jpg
40405520.jpg
40405526.jpg
40405543.jpg
40405545.jpg
40405569.jpg
40405596.jpg
40405603.jpg
40405605.jpg
40405607.jpg
40405629.jpg
40405638.jpg
40405658.jpg
40405674.jpg
40405691.jpg
40405699.jpg
40405703.jpg
40405704.jpg
40405706.jpg
40405733.jpg
40405746.jpg
40405752.jpg
40405755.jpg
40405772.jpg
40405779.jpg
40405786.jpg
40405789.jpg
40405791.jpg
40405795.jpg
40405796.jpg
40405801.jpg
40405805.jpg
40405808.jpg
40405826.jpg
40405831.jpg
40405838.jpg
40405849.jpg
40405852.jpg
40405860.jpg
40405878.jpg
40405887.jpg
40405901.jpg
40405914.jpg
40405944.jpg
40405954.jpg
40405973.jpg
40405974.jpg
40405978.jpg
40405979.jpg
40405984.jpg
40405989.jpg
40405995.jpg
40405999.jpg
40406001.jpg
40406005.jpg
40406006.jpg
40406008.jpg
40406014.jpg
40406015.jpg
40406021.jpg
40406028.jpg
40406030.jpg
40406032.jpg
40406054.jpg
40406066.jpg
40406067.jpg
40406069.jpg
40406075.jpg
40406083.jpg
40406104.jpg
40406107.jpg
40406108.jpg
40406112.jpg
40406130.jpg
40406135.jpg
40406145.jpg
40406148.jpg
40406158.jpg
40406164.jpg
40406167.jpg
40406169.jpg
40406170.jpg
40406175.jpg
40406180.jpg
40406182.jpg
40406187.jpg
40406190.jpg
40406215.jpg
40406225.jpg
40406241.jpg
40406242.jpg
40406246.jpg
40406250.jpg
40406255.jpg
40406258.jpg
40406260.jpg
40406261.jpg
40406278.jpg
40406282.jpg
40406291.jpg
40406299.jpg
40406301.jpg
40406306.jpg
40406307.jpg
40406338.jpg
40406342.jpg
40406344.jpg
40406360.jpg
40406362.jpg
40406365.jpg
40406367.jpg
40406371.jpg
40406372.jpg
40406375.jpg
40406378.jpg
40406381.jpg
40406385.jpg
40406392.jpg
40406397.jpg
40406400.jpg
40406408.jpg
40406410.jpg
40406411.jpg
40406414.jpg
40406421.jpg
40406441.jpg
40406454.jpg
40406462.jpg
40406469.jpg
40406475.jpg
40406480.jpg
40406483.jpg
40406487.jpg
40406497.jpg
40406502.jpg
40406503.jpg
40406510.jpg
40406513.jpg
40406525.jpg
40406531.jpg
40406534.jpg
40406537.jpg
40406542.jpg
40406545.jpg
40406560.jpg
40406566.jpg
40406569.jpg
40406572.jpg
40406578.jpg
40406589.jpg
40406597.jpg
40406602.jpg
40406603.jpg
40406611.jpg
40406613.jpg
40406615.jpg
40406616.jpg
40406624.jpg
40406629.jpg
40406643.jpg
40406644.jpg
40406645.jpg
40406647.jpg
40406656.jpg
40406663.jpg
40406669.jpg
40406678.jpg
40406687.jpg
40406690.jpg
40406706.jpg
40406715.jpg
40406718.jpg
40406723.jpg
40406726.jpg
40406730.jpg
40406748.jpg
40406753.jpg
40406758.jpg
40406759.jpg
40406761.jpg
40406763.jpg
40406764.jpg
40406774.jpg
40406776.jpg
40406781.jpg
40406787.jpg
40406789.jpg
40406796.jpg
40406801.jpg
40406817.jpg
40406818.jpg
40406825.jpg
40406828.jpg
40406835.jpg
40406837.jpg
40406841.jpg
40406846.jpg
40406848.jpg
40406849.jpg
40406850.jpg
40406851.jpg
40406852.jpg
40406856.jpg
40406857.jpg
40406858.jpg
40406862.jpg
40406868.jpg
40406869.jpg
40406873.jpg
40406876.jpg
40406878.jpg
40406888.jpg
40406903.jpg
40406904.jpg
40406905.jpg
40406906.jpg
40406910.jpg
40406918.jpg
40406921.jpg
40406923.jpg
40406926.jpg
40406929.jpg
40406933.jpg
40406935.jpg
40406938.jpg
40406939.jpg
40406948.jpg
40406986.jpg
40406989.jpg
40406991.jpg
40406996.jpg
40406999.jpg
40407007.jpg
40407013.jpg
40407016.jpg
40407022.jpg
40407028.jpg
40407030.jpg
40407031.jpg
40407034.jpg
40407041.jpg
40407044.jpg
40407045.jpg
40407048.jpg
40407056.jpg
40407062.jpg
40407063.jpg
40407066.jpg
40407068.jpg
40407073.jpg
40407074.jpg
40407075.jpg
40407076.jpg
40407084.jpg
40407086.jpg
40407094.jpg
40407096.jpg
40407097.jpg
40407099.jpg
40407100.jpg
40407103.jpg
40407110.jpg
40407111.jpg
40407112.jpg
40407115.jpg
40407117.jpg
40407119.jpg
40407122.jpg
40407124.jpg
40407130.jpg
40407132.jpg
40407136.jpg
40407140.jpg
40407143.jpg
40407144.jpg
40407145.jpg
40407151.jpg
40407157.jpg
40407162.jpg
40407163.jpg
40407164.jpg
40407166.jpg
40407168.jpg
40407179.jpg
40407180.jpg
40407181.jpg
40407184.jpg
40407187.jpg
40407188.jpg
40407195.jpg
40407196.jpg
40407199.jpg
40407204.jpg
40407205.jpg
40407210.jpg
40407211.jpg
40407212.jpg
40407213.jpg
40407215.jpg
40407218.jpg
40407219.jpg
40407222.jpg
40407226.jpg
40407227.jpg
40407228.jpg
40407229.jpg
40407230.jpg
40407231.jpg
40407232.jpg
40407233.jpg
40407247.jpg
40407248.jpg
40407251.jpg
40407261.jpg
40407263.jpg
40407266.jpg
40407267.jpg
40407268.jpg
40407269.jpg
40407274.jpg
40407275.jpg
40407276.jpg
40407277.jpg
40407280.jpg
40407281.jpg
40407282.jpg
40407283.jpg
40407286.jpg
40407296.jpg
40407309.jpg
40407310.jpg
40407311.jpg
40407313.jpg
40407316.jpg
40407318.jpg
40407324.jpg
40407329.jpg
40407336.jpg
40407339.jpg
40407343.jpg
40407346.jpg
40407347.jpg
40407351.jpg
40407359.jpg
40407360.jpg
40407365.jpg
40407371.jpg
40407375.jpg
40407377.jpg
40407382.jpg
40407384.jpg
40407385.jpg
40407393.jpg
40407395.jpg
40407396.jpg
40407406.jpg
40407407.jpg
40407408.jpg
40407409.jpg
40407413.jpg
40407416.jpg
40407417.jpg
40407418.jpg
40407419.jpg
40407427.jpg
40407428.jpg
40407432.jpg
40407433.jpg
40407434.jpg
40407438.jpg
40407444.jpg
40407445.jpg
40407446.jpg
40407448.jpg
40407456.jpg
40407462.jpg
40407467.jpg
40407469.jpg
40407472.jpg
40407477.jpg
40407478.jpg
40407488.jpg
40407496.jpg
40407497.jpg
40407500.jpg
40407501.jpg
40407503.jpg
40407507.jpg
40407523.jpg
40407529.jpg
40407530.jpg
40407533.jpg
40407535.jpg
40407536.jpg
40407537.jpg
40407540.jpg
40407542.jpg
40407543.jpg
40407544.jpg
40407546.jpg
40407550.jpg
40407551.jpg
40407557.jpg
40407560.jpg
40407565.jpg
40407566.jpg
40407568.jpg
40407572.jpg
40407576.jpg
40407581.jpg
40407583.jpg
40407585.jpg
40407595.jpg
40407602.jpg
40407603.jpg
40407619.jpg
40407623.jpg
40407635.jpg
40407637.jpg
40407638.jpg
40407647.jpg
40407656.jpg
40407667.jpg
40407671.jpg
40407672.jpg
40407674.jpg
40407677.jpg
40407691.jpg
40407701.jpg
40407707.jpg
40407708.jpg
40407709.jpg
40407711.jpg
40407716.jpg
40407717.jpg
40407719.jpg
40407723.jpg
40407724.jpg
40407725.jpg
40407727.jpg
40407728.jpg
40407729.jpg
40407733.jpg
40407735.jpg
40407736.jpg
40407737.jpg
40407739.jpg
40407740.jpg
40407741.jpg
40407743.jpg
40407746.jpg
40407747.jpg
40407749.jpg
40407755.jpg
40407756.jpg
40407757.jpg
40407758.jpg
40407760.jpg
40407764.jpg
40407765.jpg
40407768.jpg
40407773.jpg
40407777.jpg
40407778.jpg
40407784.jpg
40407788.jpg
40407792.jpg
40407805.jpg
40407806.jpg
40407808.jpg
40407809.jpg
40407810.jpg
40407811.jpg
40407815.jpg
40407818.jpg
40407819.jpg
40407820.jpg
40407821.jpg
40407822.jpg
40407823.jpg
40407824.jpg
40407826.jpg
40407827.jpg
40407829.jpg
40407830.jpg
40407833.jpg
40407834.jpg
40407838.jpg
40407842.jpg
40407843.jpg
40407844.jpg
40407846.jpg
40407847.jpg
40407848.jpg
40407852.jpg
40407855.jpg
40407856.jpg
40407857.jpg
40407860.jpg
40407862.jpg
40407864.jpg
40407866.jpg
40407872.jpg
40407873.jpg
40407874.jpg
40407876.jpg
40407879.jpg
40407880.jpg
40407881.jpg
40407885.jpg
40407888.jpg
40407889.jpg
40407890.jpg
40407891.jpg
40407892.jpg
40407893.jpg
40407895.jpg
40407896.jpg
40407898.jpg
40407899.jpg
40407900.jpg
40407902.jpg
40407904.jpg
40407909.jpg
40407910.jpg
40407911.jpg
40407912.jpg
40407913.jpg
40407914.jpg
40407915.jpg
40407916.jpg
40407917.jpg
40407918.jpg
40407920.jpg
40407921.jpg
40407923.jpg
40407924.jpg
40407925.jpg
40407927.jpg
40407928.jpg
40407931.jpg
40407933.jpg
40407935.jpg
40407938.jpg
40407939.jpg
40407943.jpg
40407944.jpg
40407946.jpg
40407949.jpg
40407950.jpg
40407952.jpg
40407954.jpg
40407955.jpg
40407956.jpg
40407959.jpg
40407961.jpg
40407963.jpg
40407967.jpg
40407968.jpg
40407969.jpg
40407970.jpg
40407972.jpg
40407973.jpg
40407974.jpg
40407975.jpg
40407976.jpg
40407977.jpg
40407978.jpg
40407983.jpg
40407984.jpg
40407988.jpg
40407990.jpg
40407992.jpg
40407993.jpg
40407996.jpg
40407997.jpg
40408000.jpg
40408001.jpg
40408002.jpg
40408003.jpg
40408004.jpg
40408005.jpg
40408006.jpg
40408007.jpg
40408008.jpg
40408009.jpg
40408010.jpg
40408011.jpg
40408012.jpg
40408013.jpg
40408014.jpg
40408015.jpg
40408016.jpg
40408017.jpg
40408018.jpg
40408019.jpg
40408022.jpg
40408023.jpg
40408024.jpg
40408025.jpg
40408026.jpg
40408027.jpg
40408028.jpg
40408029.jpg
40408030.jpg
40408031.jpg
40408032.jpg
40408033.jpg
40408034.jpg
40408035.jpg
40408036.jpg
40408039.jpg
40408040.jpg
40408041.jpg
40408043.jpg
40408045.jpg
40408046.jpg
40408048.jpg
40408049.jpg
40408050.jpg
40408052.jpg
40408053.jpg
40408054.jpg
40408055.jpg
40408056.jpg
40408057.jpg
40408058.jpg
40408059.jpg
40408060.jpg
40408062.jpg
40408063.jpg
40408064.jpg
40408066.jpg
40408067.jpg
40408068.jpg
40408070.jpg
40408071.jpg
40408072.jpg
40408074.jpg
40408075.jpg
40408076.jpg
40408077.jpg
40408078.jpg
40408079.jpg
40408080.jpg
40408082.jpg
40408083.jpg
40408084.jpg
40408085.jpg
40408086.jpg
40408087.jpg
40408088.jpg
40408089.jpg
40408090.jpg
40408091.jpg
40408092.jpg
40408093.jpg
40408094.jpg
40408095.jpg
40408097.jpg
40408098.jpg
40408099.jpg
40408100.jpg
40408102.jpg
40408103.jpg
40408104.jpg
40408105.jpg
40408106.jpg
40408107.jpg
40408108.jpg
40408109.jpg
40408111.jpg
40408112.jpg
40408113.jpg
40408115.jpg
40408116.jpg
40408117.jpg
40408118.jpg
40408119.jpg
40408120.jpg
40408121.jpg
40408122.jpg
40408123.jpg
40408124.jpg
40408125.jpg
40408126.jpg
40408127.jpg
40408129.jpg
40408130.jpg
40408131.jpg
40408132.jpg
40408134.jpg
40408135.jpg
40408136.jpg
40408137.jpg
40408138.jpg
40408139.jpg
40408140.jpg
40408141.jpg
40408142.jpg
40408143.jpg
40408144.jpg
40408145.jpg
40408146.jpg
40408147.jpg
40408148.jpg
40408149.jpg
40408150.jpg
40408151.jpg
40408152.jpg
40408153.jpg
40408154.jpg
40408156.jpg
40408157.jpg
40408158.jpg
40408159.jpg
40408160.jpg
40408161.jpg
40408162.jpg
40408164.jpg
40408166.jpg
40408167.jpg
40408168.jpg
40408169.jpg
40408170.jpg
40408171.jpg
40408172.jpg
40408173.jpg
40408174.jpg
40408175.jpg
40408176.jpg
40408177.jpg
40408178.jpg
40408179.jpg
40408180.jpg
40408181.jpg
40408182.jpg
40408183.jpg
40408184.jpg
40408185.jpg
40408186.jpg
40408187.jpg
40408188.jpg
40408189.jpg
40408190.jpg
40408191.jpg
40408192.jpg
40408193.jpg
40408194.jpg
40408195.jpg
40408196.jpg
40408197.jpg
40408198.jpg
40408199.jpg
40408200.jpg
40408201.jpg
40408202.jpg
40408203.jpg
40408204.jpg
40408205.jpg
40408206.jpg
40408207.jpg
40408208.jpg
40408209.jpg
40408210.jpg
40408211.jpg
40408212.jpg
40408213.jpg
40408214.jpg
40408215.jpg
40408216.jpg
40408217.jpg
40408218.jpg
40408219.jpg
40408220.jpg
40408221.jpg
40408222.jpg
40408223.jpg
40408224.jpg
40408225.jpg
40408226.jpg
40408227.jpg
40408228.jpg
40408229.jpg
40408230.jpg
40408231.jpg
40408232.jpg
40408233.jpg
40408234.jpg
40408235.jpg
40300001.jpg
40300002.jpg
40300004.jpg
40300005.jpg
40300010.jpg
40300011.jpg
40300013.jpg
40300014.jpg
40300018.jpg
40300019.jpg
40300020.jpg
40300021.jpg
40300022.jpg
40300032.jpg
40300036.jpg
40300037.jpg
40300042.jpg
40300044.jpg
40300046.jpg
40300047.jpg
40300048.jpg
40300049.jpg
40300056.jpg
40300060.jpg
40300061.jpg
40300063.jpg
40300064.jpg
40300066.jpg
40300068.jpg
40300077.jpg
40300078.jpg
40300083.jpg
40300084.jpg
40300085.jpg
40300096.jpg
40300097.jpg
40300098.jpg
40300100.jpg
40300101.jpg
40300102.jpg
40300104.jpg
40300105.jpg
40300106.jpg
40300107.jpg
40300111.jpg
40300113.jpg
40300115.jpg
40300117.jpg
40300119.jpg
40300120.jpg
40300121.jpg
40300122.jpg
40300123.jpg
40300124.jpg
40400001.jpg
40400038.jpg
40400043.jpg
40400064.jpg
40400267.jpg
40400351.jpg
40400370.jpg
40400382.jpg
40403771.jpg
40405899.jpg
40300125.jpg
40300126.jpg